simulation/qsim/RELOGIO_MK1.msim.vcd
$comment
	File created using the following command:
		vcd file RELOGIO_MK1.msim.vcd -direction
$end
$date
	Tue Oct  8 11:15:25 2019
$end
$version
	ModelSim Version 10.5b
$end
$timescale
	1ps
$end

$scope module relogio_vhd_vec_tst $end
$var wire 1 ! CLK_OUT $end
$var wire 1 " CLOCK_50 $end
$var wire 1 # DATA [3] $end
$var wire 1 $ DATA [2] $end
$var wire 1 % DATA [1] $end
$var wire 1 & DATA [0] $end
$var wire 1 ' ENDR [7] $end
$var wire 1 ( ENDR [6] $end
$var wire 1 ) ENDR [5] $end
$var wire 1 * ENDR [4] $end
$var wire 1 + ENDR [3] $end
$var wire 1 , ENDR [2] $end
$var wire 1 - ENDR [1] $end
$var wire 1 . ENDR [0] $end
$var wire 1 / HAB7SEG_OUT $end
$var wire 1 0 HAB_IO_OUT $end
$var wire 1 1 HABRAM_OUT $end
$var wire 1 2 HEX0 [6] $end
$var wire 1 3 HEX0 [5] $end
$var wire 1 4 HEX0 [4] $end
$var wire 1 5 HEX0 [3] $end
$var wire 1 6 HEX0 [2] $end
$var wire 1 7 HEX0 [1] $end
$var wire 1 8 HEX0 [0] $end
$var wire 1 9 HEX1 [6] $end
$var wire 1 : HEX1 [5] $end
$var wire 1 ; HEX1 [4] $end
$var wire 1 < HEX1 [3] $end
$var wire 1 = HEX1 [2] $end
$var wire 1 > HEX1 [1] $end
$var wire 1 ? HEX1 [0] $end
$var wire 1 @ HEX2 [6] $end
$var wire 1 A HEX2 [5] $end
$var wire 1 B HEX2 [4] $end
$var wire 1 C HEX2 [3] $end
$var wire 1 D HEX2 [2] $end
$var wire 1 E HEX2 [1] $end
$var wire 1 F HEX2 [0] $end
$var wire 1 G HEX3 [6] $end
$var wire 1 H HEX3 [5] $end
$var wire 1 I HEX3 [4] $end
$var wire 1 J HEX3 [3] $end
$var wire 1 K HEX3 [2] $end
$var wire 1 L HEX3 [1] $end
$var wire 1 M HEX3 [0] $end
$var wire 1 N HEX4 [6] $end
$var wire 1 O HEX4 [5] $end
$var wire 1 P HEX4 [4] $end
$var wire 1 Q HEX4 [3] $end
$var wire 1 R HEX4 [2] $end
$var wire 1 S HEX4 [1] $end
$var wire 1 T HEX4 [0] $end
$var wire 1 U HEX5 [6] $end
$var wire 1 V HEX5 [5] $end
$var wire 1 W HEX5 [4] $end
$var wire 1 X HEX5 [3] $end
$var wire 1 Y HEX5 [2] $end
$var wire 1 Z HEX5 [1] $end
$var wire 1 [ HEX5 [0] $end
$var wire 1 \ HEX6 [6] $end
$var wire 1 ] HEX6 [5] $end
$var wire 1 ^ HEX6 [4] $end
$var wire 1 _ HEX6 [3] $end
$var wire 1 ` HEX6 [2] $end
$var wire 1 a HEX6 [1] $end
$var wire 1 b HEX6 [0] $end
$var wire 1 c HEX7 [6] $end
$var wire 1 d HEX7 [5] $end
$var wire 1 e HEX7 [4] $end
$var wire 1 f HEX7 [3] $end
$var wire 1 g HEX7 [2] $end
$var wire 1 h HEX7 [1] $end
$var wire 1 i HEX7 [0] $end
$var wire 1 j KEY3 $end
$var wire 1 k SW0 $end

$scope module i1 $end
$var wire 1 l gnd $end
$var wire 1 m vcc $end
$var wire 1 n unknown $end
$var wire 1 o devoe $end
$var wire 1 p devclrn $end
$var wire 1 q devpor $end
$var wire 1 r ww_devoe $end
$var wire 1 s ww_devclrn $end
$var wire 1 t ww_devpor $end
$var wire 1 u ww_CLOCK_50 $end
$var wire 1 v ww_SW0 $end
$var wire 1 w ww_KEY3 $end
$var wire 1 x ww_HEX0 [6] $end
$var wire 1 y ww_HEX0 [5] $end
$var wire 1 z ww_HEX0 [4] $end
$var wire 1 { ww_HEX0 [3] $end
$var wire 1 | ww_HEX0 [2] $end
$var wire 1 } ww_HEX0 [1] $end
$var wire 1 ~ ww_HEX0 [0] $end
$var wire 1 !! ww_HEX1 [6] $end
$var wire 1 "! ww_HEX1 [5] $end
$var wire 1 #! ww_HEX1 [4] $end
$var wire 1 $! ww_HEX1 [3] $end
$var wire 1 %! ww_HEX1 [2] $end
$var wire 1 &! ww_HEX1 [1] $end
$var wire 1 '! ww_HEX1 [0] $end
$var wire 1 (! ww_HEX2 [6] $end
$var wire 1 )! ww_HEX2 [5] $end
$var wire 1 *! ww_HEX2 [4] $end
$var wire 1 +! ww_HEX2 [3] $end
$var wire 1 ,! ww_HEX2 [2] $end
$var wire 1 -! ww_HEX2 [1] $end
$var wire 1 .! ww_HEX2 [0] $end
$var wire 1 /! ww_HEX3 [6] $end
$var wire 1 0! ww_HEX3 [5] $end
$var wire 1 1! ww_HEX3 [4] $end
$var wire 1 2! ww_HEX3 [3] $end
$var wire 1 3! ww_HEX3 [2] $end
$var wire 1 4! ww_HEX3 [1] $end
$var wire 1 5! ww_HEX3 [0] $end
$var wire 1 6! ww_HEX4 [6] $end
$var wire 1 7! ww_HEX4 [5] $end
$var wire 1 8! ww_HEX4 [4] $end
$var wire 1 9! ww_HEX4 [3] $end
$var wire 1 :! ww_HEX4 [2] $end
$var wire 1 ;! ww_HEX4 [1] $end
$var wire 1 <! ww_HEX4 [0] $end
$var wire 1 =! ww_HEX5 [6] $end
$var wire 1 >! ww_HEX5 [5] $end
$var wire 1 ?! ww_HEX5 [4] $end
$var wire 1 @! ww_HEX5 [3] $end
$var wire 1 A! ww_HEX5 [2] $end
$var wire 1 B! ww_HEX5 [1] $end
$var wire 1 C! ww_HEX5 [0] $end
$var wire 1 D! ww_HEX6 [6] $end
$var wire 1 E! ww_HEX6 [5] $end
$var wire 1 F! ww_HEX6 [4] $end
$var wire 1 G! ww_HEX6 [3] $end
$var wire 1 H! ww_HEX6 [2] $end
$var wire 1 I! ww_HEX6 [1] $end
$var wire 1 J! ww_HEX6 [0] $end
$var wire 1 K! ww_HEX7 [6] $end
$var wire 1 L! ww_HEX7 [5] $end
$var wire 1 M! ww_HEX7 [4] $end
$var wire 1 N! ww_HEX7 [3] $end
$var wire 1 O! ww_HEX7 [2] $end
$var wire 1 P! ww_HEX7 [1] $end
$var wire 1 Q! ww_HEX7 [0] $end
$var wire 1 R! ww_DATA [3] $end
$var wire 1 S! ww_DATA [2] $end
$var wire 1 T! ww_DATA [1] $end
$var wire 1 U! ww_DATA [0] $end
$var wire 1 V! ww_CLK_OUT $end
$var wire 1 W! ww_HAB7SEG_OUT $end
$var wire 1 X! ww_HABRAM_OUT $end
$var wire 1 Y! ww_HAB_IO_OUT $end
$var wire 1 Z! ww_ENDR [7] $end
$var wire 1 [! ww_ENDR [6] $end
$var wire 1 \! ww_ENDR [5] $end
$var wire 1 ]! ww_ENDR [4] $end
$var wire 1 ^! ww_ENDR [3] $end
$var wire 1 _! ww_ENDR [2] $end
$var wire 1 `! ww_ENDR [1] $end
$var wire 1 a! ww_ENDR [0] $end
$var wire 1 b! \KEY3~input_o\ $end
$var wire 1 c! \CLOCK_50~input_o\ $end
$var wire 1 d! \BASE_DE_TEMPO_2|contador[0]~1_combout\ $end
$var wire 1 e! \BASE_DE_TEMPO_2|contador[1]~0_combout\ $end
$var wire 1 f! \BASE_DE_TEMPO_1|contador[1]~11_combout\ $end
$var wire 1 g! \BASE_DE_TEMPO_1|contador[1]~12\ $end
$var wire 1 h! \BASE_DE_TEMPO_1|contador[2]~13_combout\ $end
$var wire 1 i! \BASE_DE_TEMPO_1|contador[2]~14\ $end
$var wire 1 j! \BASE_DE_TEMPO_1|contador[3]~15_combout\ $end
$var wire 1 k! \BASE_DE_TEMPO_1|contador[3]~16\ $end
$var wire 1 l! \BASE_DE_TEMPO_1|contador[4]~17_combout\ $end
$var wire 1 m! \BASE_DE_TEMPO_1|contador[4]~18\ $end
$var wire 1 n! \BASE_DE_TEMPO_1|contador[5]~19_combout\ $end
$var wire 1 o! \BASE_DE_TEMPO_1|contador[5]~20\ $end
$var wire 1 p! \BASE_DE_TEMPO_1|contador[6]~21_combout\ $end
$var wire 1 q! \BASE_DE_TEMPO_1|contador[6]~22\ $end
$var wire 1 r! \BASE_DE_TEMPO_1|contador[7]~23_combout\ $end
$var wire 1 s! \BASE_DE_TEMPO_1|contador[7]~24\ $end
$var wire 1 t! \BASE_DE_TEMPO_1|contador[8]~25_combout\ $end
$var wire 1 u! \BASE_DE_TEMPO_1|contador[8]~26\ $end
$var wire 1 v! \BASE_DE_TEMPO_1|contador[9]~27_combout\ $end
$var wire 1 w! \BASE_DE_TEMPO_1|contador[9]~28\ $end
$var wire 1 x! \BASE_DE_TEMPO_1|contador[10]~29_combout\ $end
$var wire 1 y! \BASE_DE_TEMPO_1|contador[10]~30\ $end
$var wire 1 z! \BASE_DE_TEMPO_1|contador[11]~31_combout\ $end
$var wire 1 {! \SW0~input_o\ $end
$var wire 1 |! \MUX_BASE_TEMPO|saida_MUX~combout\ $end
$var wire 1 }! \CPU|PC|DOUT[0]~8_combout\ $end
$var wire 1 ~! \CPU|PC|DOUT[0]~9\ $end
$var wire 1 !" \CPU|PC|DOUT[1]~10_combout\ $end
$var wire 1 "" \CPU|PC|DOUT[1]~11\ $end
$var wire 1 #" \CPU|PC|DOUT[2]~12_combout\ $end
$var wire 1 $" \CPU|PC|DOUT[2]~13\ $end
$var wire 1 %" \CPU|PC|DOUT[3]~14_combout\ $end
$var wire 1 &" \CPU|PC|DOUT[3]~15\ $end
$var wire 1 '" \CPU|PC|DOUT[4]~16_combout\ $end
$var wire 1 (" \CPU|PC|DOUT[4]~17\ $end
$var wire 1 )" \CPU|PC|DOUT[5]~18_combout\ $end
$var wire 1 *" \CPU|PC|DOUT[5]~19\ $end
$var wire 1 +" \CPU|PC|DOUT[6]~20_combout\ $end
$var wire 1 ," \CPU|PC|DOUT[6]~21\ $end
$var wire 1 -" \CPU|PC|DOUT[7]~22_combout\ $end
$var wire 1 ." \CPU|ROM|memROM~1_combout\ $end
$var wire 1 /" \CPU|ROM|memROM~5_combout\ $end
$var wire 1 0" \CPU|ROM|memROM~0_combout\ $end
$var wire 1 1" \CPU|ULA|Add0~0_combout\ $end
$var wire 1 2" \CPU|ULA|SAIDA[0]~5_cout\ $end
$var wire 1 3" \CPU|ULA|SAIDA[0]~6_combout\ $end
$var wire 1 4" \CPU|ROM|memROM~2_combout\ $end
$var wire 1 5" \CPU|UC|MUXHAB~q\ $end
$var wire 1 6" \CPU|ROM|memROM~3_combout\ $end
$var wire 1 7" \CPU|ROM|memROM~4_combout\ $end
$var wire 1 8" \CPU|UC|writeEnable~q\ $end
$var wire 1 9" \SEG7ALL|hab_DS~0_combout\ $end
$var wire 1 :" \CPU|ULA|Add0~1_combout\ $end
$var wire 1 ;" \CPU|ULA|SAIDA[0]~7\ $end
$var wire 1 <" \CPU|ULA|SAIDA[1]~8_combout\ $end
$var wire 1 =" \~GND~combout\ $end
$var wire 1 >" \CPU|ULA|SAIDA[1]~9\ $end
$var wire 1 ?" \CPU|ULA|SAIDA[2]~10_combout\ $end
$var wire 1 @" \CPU|ULA|SAIDA[2]~11\ $end
$var wire 1 A" \CPU|ULA|SAIDA[3]~12_combout\ $end
$var wire 1 B" \SEG7ALL|SEG7_DS|rascSaida7seg[0]~0_combout\ $end
$var wire 1 C" \SEG7ALL|SEG7_DS|rascSaida7seg[1]~1_combout\ $end
$var wire 1 D" \SEG7ALL|SEG7_DS|rascSaida7seg[2]~2_combout\ $end
$var wire 1 E" \SEG7ALL|SEG7_DS|rascSaida7seg[3]~3_combout\ $end
$var wire 1 F" \SEG7ALL|SEG7_DS|rascSaida7seg[4]~4_combout\ $end
$var wire 1 G" \SEG7ALL|SEG7_DS|rascSaida7seg[5]~5_combout\ $end
$var wire 1 H" \SEG7ALL|SEG7_DS|rascSaida7seg[6]~6_combout\ $end
$var wire 1 I" \SEG7ALL|hab_US~0_combout\ $end
$var wire 1 J" \SEG7ALL|SEG7_US|rascSaida7seg[0]~0_combout\ $end
$var wire 1 K" \SEG7ALL|SEG7_US|rascSaida7seg[1]~1_combout\ $end
$var wire 1 L" \SEG7ALL|SEG7_US|rascSaida7seg[2]~2_combout\ $end
$var wire 1 M" \SEG7ALL|SEG7_US|rascSaida7seg[3]~3_combout\ $end
$var wire 1 N" \SEG7ALL|SEG7_US|rascSaida7seg[4]~4_combout\ $end
$var wire 1 O" \SEG7ALL|SEG7_US|rascSaida7seg[5]~5_combout\ $end
$var wire 1 P" \SEG7ALL|SEG7_US|rascSaida7seg[6]~6_combout\ $end
$var wire 1 Q" \BASE_DE_TEMPO_2|contador\ [1] $end
$var wire 1 R" \BASE_DE_TEMPO_2|contador\ [0] $end
$var wire 1 S" \CPU|UC|OPCODE\ [1] $end
$var wire 1 T" \CPU|UC|OPCODE\ [0] $end
$var wire 1 U" \CPU|ACU|DOUT\ [3] $end
$var wire 1 V" \CPU|ACU|DOUT\ [2] $end
$var wire 1 W" \CPU|ACU|DOUT\ [1] $end
$var wire 1 X" \CPU|ACU|DOUT\ [0] $end
$var wire 1 Y" \SEG7ALL|REGSEG7_US|DOUT\ [3] $end
$var wire 1 Z" \SEG7ALL|REGSEG7_US|DOUT\ [2] $end
$var wire 1 [" \SEG7ALL|REGSEG7_US|DOUT\ [1] $end
$var wire 1 \" \SEG7ALL|REGSEG7_US|DOUT\ [0] $end
$var wire 1 ]" \BASE_DE_TEMPO_1|contador\ [11] $end
$var wire 1 ^" \BASE_DE_TEMPO_1|contador\ [10] $end
$var wire 1 _" \BASE_DE_TEMPO_1|contador\ [9] $end
$var wire 1 `" \BASE_DE_TEMPO_1|contador\ [8] $end
$var wire 1 a" \BASE_DE_TEMPO_1|contador\ [7] $end
$var wire 1 b" \BASE_DE_TEMPO_1|contador\ [6] $end
$var wire 1 c" \BASE_DE_TEMPO_1|contador\ [5] $end
$var wire 1 d" \BASE_DE_TEMPO_1|contador\ [4] $end
$var wire 1 e" \BASE_DE_TEMPO_1|contador\ [3] $end
$var wire 1 f" \BASE_DE_TEMPO_1|contador\ [2] $end
$var wire 1 g" \BASE_DE_TEMPO_1|contador\ [1] $end
$var wire 1 h" \BASE_DE_TEMPO_1|contador\ [0] $end
$var wire 1 i" \SEG7ALL|REGSEG7_DS|DOUT\ [3] $end
$var wire 1 j" \SEG7ALL|REGSEG7_DS|DOUT\ [2] $end
$var wire 1 k" \SEG7ALL|REGSEG7_DS|DOUT\ [1] $end
$var wire 1 l" \SEG7ALL|REGSEG7_DS|DOUT\ [0] $end
$var wire 1 m" \CPU|ULA|SAIDA\ [3] $end
$var wire 1 n" \CPU|ULA|SAIDA\ [2] $end
$var wire 1 o" \CPU|ULA|SAIDA\ [1] $end
$var wire 1 p" \CPU|ULA|SAIDA\ [0] $end
$var wire 1 q" \CPU|PC|DOUT\ [7] $end
$var wire 1 r" \CPU|PC|DOUT\ [6] $end
$var wire 1 s" \CPU|PC|DOUT\ [5] $end
$var wire 1 t" \CPU|PC|DOUT\ [4] $end
$var wire 1 u" \CPU|PC|DOUT\ [3] $end
$var wire 1 v" \CPU|PC|DOUT\ [2] $end
$var wire 1 w" \CPU|PC|DOUT\ [1] $end
$var wire 1 x" \CPU|PC|DOUT\ [0] $end
$var wire 1 y" \SEG7ALL|SEG7_US|ALT_INV_rascSaida7seg[6]~6_combout\ $end
$var wire 1 z" \SEG7ALL|SEG7_DS|ALT_INV_rascSaida7seg[6]~6_combout\ $end
$upscope $end
$upscope $end
$enddefinitions $end
#0
$dumpvars
0!
0"
0/
00
01
1j
0k
0l
1m
xn
1o
1p
1q
1r
1s
1t
0u
0v
1w
0V!
0W!
0X!
0Y!
1b!
0c!
1d!
0e!
0f!
0g!
0h!
1i!
0j!
0k!
0l!
1m!
0n!
0o!
0p!
1q!
0r!
0s!
0t!
1u!
0v!
0w!
0x!
1y!
0z!
0{!
0|!
1}!
0~!
0!"
1""
0#"
0$"
0%"
1&"
0'"
0("
0)"
1*"
0+"
0,"
0-"
1."
1/"
00"
01"
02"
03"
04"
05"
06"
07"
08"
09"
0:"
1;"
0<"
0="
0>"
0?"
1@"
0A"
0B"
0C"
0D"
0E"
0F"
0G"
0H"
0I"
0J"
0K"
0L"
0M"
0N"
0O"
0P"
1y"
1z"
0x
0y
0z
0{
0|
0}
0~
0!!
0"!
0#!
0$!
0%!
0&!
0'!
1(!
0)!
0*!
0+!
0,!
0-!
0.!
1/!
00!
01!
02!
03!
04!
05!
16!
07!
08!
09!
0:!
0;!
0<!
1=!
0>!
0?!
0@!
0A!
0B!
0C!
1D!
0E!
0F!
0G!
0H!
0I!
0J!
1K!
0L!
0M!
0N!
0O!
0P!
0Q!
0R!
0S!
0T!
0U!
0Z!
0[!
0\!
0]!
0^!
0_!
0`!
0a!
0Q"
0R"
0S"
xT"
0U"
0V"
0W"
0X"
0Y"
0Z"
0["
0\"
0]"
0^"
0_"
0`"
0a"
0b"
0c"
0d"
0e"
0f"
0g"
xh"
0i"
0j"
0k"
0l"
0m"
0n"
0o"
0p"
0q"
0r"
0s"
0t"
0u"
0v"
0w"
0x"
0#
0$
0%
0&
0'
0(
0)
0*
0+
0,
0-
0.
02
03
04
05
06
07
08
09
0:
0;
0<
0=
0>
0?
1@
0A
0B
0C
0D
0E
0F
1G
0H
0I
0J
0K
0L
0M
1N
0O
0P
0Q
0R
0S
0T
1U
0V
0W
0X
0Y
0Z
0[
1\
0]
0^
0_
0`
0a
0b
1c
0d
0e
0f
0g
0h
0i
$end
#500
1"
1u
1c!
1R"
0d!
1e!
1f!
#1000
0"
0u
0c!
#1500
1"
1u
1c!
0R"
1Q"
1g"
1|!
1d!
1x"
1S"
11"
12"
1:"
1<"
1?"
0}!
1~!
10"
1V!
01"
14"
1!"
1A"
0;"
1!
0<"
1>"
13"
1;"
1<"
0>"
0?"
0@"
1a!
0A"
1?"
1@"
1.
1A"
#2000
0"
0u
0c!
#2500
1"
1u
1c!
1R"
0d!
0e!
0f!
1g!
1h!
#3000
0"
0u
0c!
#3500
1"
1u
1c!
0R"
0Q"
0g"
1f"
0h!
0i!
0|!
1d!
0g!
1h!
1i!
1j!
0j!
0V!
0!
#4000
0"
0u
0c!
#4500
1"
1u
1c!
1R"
0d!
1e!
1f!
#5000
0"
0u
0c!
#5500
1"
1u
1c!
0R"
1Q"
1g"
1|!
1d!
0x"
1w"
1p"
15"
0!"
0""
0/"
1}!
0~!
00"
1V!
11"
04"
1!"
1""
1#"
1!
0#"
03"
0;"
0<"
1>"
0a!
0?"
0@"
0.
0A"
#6000
0"
0u
0c!
#6500
1"
1u
1c!
1R"
0d!
0e!
0f!
1g!
0h!
0i!
1j!
#7000
0"
0u
0c!
#7500
1"
1u
1c!
0R"
0Q"
0g"
0f"
1e"
0j!
1k!
1h!
1i!
0|!
1d!
0g!
0h!
1j!
0k!
1l!
0l!
0V!
0!
#8000
0"
0u
0c!
#8500
1"
1u
1c!
1R"
0d!
1e!
1f!
#9000
0"
0u
0c!
#9500
1"
1u
1c!
0R"
1Q"
1g"
1|!
1d!
1x"
0S"
0p"
05"
1X"
13"
01"
02"
0:"
1<"
0>"
1?"
1@"
0}!
1~!
10"
1V!
11"
14"
0!"
0""
0?"
1;"
1!
1U!
0<"
1#"
03"
0;"
1&
1<"
1a!
1.
#10000
0"
0u
0c!
#10500
1"
1u
1c!
1R"
0d!
0e!
0f!
1g!
1h!
#11000
0"
0u
0c!
#11500
1"
1u
1c!
0R"
0Q"
0g"
1f"
0h!
0i!
0|!
1d!
0g!
1h!
1i!
0j!
1k!
1l!
1j!
0k!
0V!
0l!
0!
#12000
0"
0u
0c!
#12500
1"
1u
1c!
1R"
0d!
1e!
1f!
#13000
0"
0u
0c!
#13500
1"
1u
1c!
0R"
1Q"
1g"
1|!
1d!
0x"
0w"
1v"
15"
1o"
0#"
1$"
1!"
1""
16"
1}!
0~!
00"
1V!
01"
04"
0!"
17"
1#"
0$"
1%"
1!
0%"
1:"
13"
1;"
0<"
1A"
1^!
0a!
0.
1+
#14000
0"
0u
0c!
#14500
1"
1u
1c!
1R"
0d!
0e!
0f!
1g!
0h!
0i!
0j!
1k!
1l!
#15000
0"
0u
0c!
#15500
1"
1u
1c!
0R"
0Q"
0g"
0f"
0e"
1d"
0l!
0m!
1j!
0k!
1h!
1i!
0|!
1d!
0g!
0h!
0j!
1l!
1m!
1n!
0n!
0V!
0!
#16000
0"
0u
0c!
#16500
1"
1u
1c!
1R"
0d!
1e!
1f!
#17000
0"
0u
0c!
#17500
1"
1u
1c!
0R"
1Q"
1g"
1|!
1d!
1x"
1p"
05"
0X"
18"
0o"
1W"
1m"
1<"
1I"
03"
0}!
1~!
1V!
1!"
1!
1T!
1W!
0U!
0&
1%
1/
#18000
0"
0u
0c!
#18500
1"
1u
1c!
1R"
0d!
0e!
0f!
1g!
1h!
#19000
0"
0u
0c!
#19500
1"
1u
1c!
0R"
0Q"
0g"
1f"
0h!
0i!
0|!
1d!
0g!
1h!
1i!
1j!
0j!
0V!
0!
#20000
0"
0u
0c!
#20500
1"
1u
1c!
1R"
0d!
1e!
1f!
#21000
0"
0u
0c!
#21500
1"
1u
1c!
0R"
1Q"
1g"
1|!
1d!
0x"
1w"
0p"
1o"
1["
1L"
1O"
1P"
0!"
0""
06"
1}!
0~!
1V!
0y"
1!"
1""
07"
0#"
1$"
1!
1%"
0:"
0I"
1#"
0$"
1L!
1O!
0K!
0%"
0A"
1g
1d
0^!
0c
0+
#22000
0"
0u
0c!
#22500
1"
1u
1c!
1R"
0d!
0e!
0f!
1g!
0h!
0i!
1j!
#23000
0"
0u
0c!
#23500
1"
1u
1c!
0R"
0Q"
0g"
0f"
1e"
0j!
1k!
1h!
1i!
0|!
1d!
0g!
0h!
1j!
0k!
0l!
0m!
1n!
1l!
1m!
0V!
0n!
0!
#24000
0"
0u
0c!
#24500
1"
1u
1c!
1R"
0d!
1e!
1f!
#25000
0"
1k
0u
1v
1{!
0c!
#25500
1"
1u
1c!
0R"
1Q"
1g"
1d!
#26000
0"
0u
0c!
#26500
1"
1u
1c!
1R"
0d!
0e!
0f!
1g!
1h!
#27000
0"
0u
0c!
#27500
1"
1u
1c!
0R"
0Q"
0g"
1f"
0h!
0i!
1d!
0g!
1h!
1i!
0j!
1k!
0l!
0m!
1j!
0k!
1l!
1m!
1n!
0n!
#28000
0"
0u
0c!
#28500
1"
1u
1c!
1R"
0d!
1e!
1f!
#29000
0"
0u
0c!
#29500
1"
1u
1c!
0R"
1Q"
1g"
1d!
#30000
0"
0u
0c!
#30500
1"
1u
1c!
1R"
0d!
0e!
0f!
1g!
0h!
0i!
0j!
1k!
0l!
0m!
1n!
#31000
0"
0u
0c!
#31500
1"
1u
1c!
0R"
0Q"
0g"
0f"
0e"
0d"
1c"
0n!
1o!
1l!
1m!
1j!
0k!
1h!
1i!
1d!
0g!
0h!
0j!
0l!
1n!
0o!
1p!
0p!
#32000
0"
0u
0c!
#32500
1"
1u
1c!
1R"
0d!
1e!
1f!
#33000
0"
0u
0c!
#33500
1"
1u
1c!
0R"
1Q"
1g"
1d!
#34000
0"
0u
0c!
#34500
1"
1u
1c!
1R"
0d!
0e!
0f!
1g!
1h!
#35000
0"
0u
0c!
#35500
1"
1u
1c!
0R"
0Q"
0g"
1f"
0h!
0i!
1d!
0g!
1h!
1i!
1j!
0j!
#36000
0"
0u
0c!
#36500
1"
1u
1c!
1R"
0d!
1e!
1f!
#37000
0"
0u
0c!
#37500
1"
1u
1c!
0R"
1Q"
1g"
1d!
#38000
0"
0u
0c!
#38500
1"
1u
1c!
1R"
0d!
0e!
0f!
1g!
0h!
0i!
1j!
#39000
0"
0u
0c!
#39500
1"
1u
1c!
0R"
0Q"
0g"
0f"
1e"
0j!
1k!
1h!
1i!
1d!
0g!
0h!
1j!
0k!
1l!
0l!
#40000
0"
0u
0c!
#40500
1"
1u
1c!
1R"
0d!
1e!
1f!
#41000
0"
0u
0c!
#41500
1"
1u
1c!
0R"
1Q"
1g"
1d!
#42000
0"
0u
0c!
#42500
1"
1u
1c!
1R"
0d!
0e!
0f!
1g!
1h!
#43000
0"
0u
0c!
#43500
1"
1u
1c!
0R"
0Q"
0g"
1f"
0h!
0i!
1d!
0g!
1h!
1i!
0j!
1k!
1l!
1j!
0k!
0l!
#44000
0"
0u
0c!
#44500
1"
1u
1c!
1R"
0d!
1e!
1f!
#45000
0"
0u
0c!
#45500
1"
1u
1c!
0R"
1Q"
1g"
1d!
#46000
0"
0u
0c!
#46500
1"
1u
1c!
1R"
0d!
0e!
0f!
1g!
0h!
0i!
0j!
1k!
1l!
#47000
0"
0u
0c!
#47500
1"
1u
1c!
0R"
0Q"
0g"
0f"
0e"
1d"
0l!
0m!
1j!
0k!
1h!
1i!
1d!
0g!
0h!
0j!
1l!
1m!
0n!
1o!
1p!
1n!
0o!
0p!
#48000
0"
0u
0c!
#48500
1"
1u
1c!
1R"
0d!
1e!
1f!
#49000
0"
0u
0c!
#49500
1"
1u
1c!
0R"
1Q"
1g"
1d!
#50000
0"
0k
0u
0v
0{!
0c!
1|!
1x"
08"
0m"
0}!
1~!
10"
1V!
11"
14"
0!"
0""
1!
0W!
0#"
1$"
13"
0/
1%"
1a!
1.
#50500
1"
1u
1c!
1R"
0d!
0e!
0f!
1g!
1h!
#51000
0"
0u
0c!
#51500
1"
1u
1c!
0R"
0Q"
0g"
1f"
0h!
0i!
0|!
1d!
0g!
1h!
1i!
1j!
0j!
0V!
0!
#52000
0"
0u
0c!
#52500
1"
1u
1c!
1R"
0d!
1e!
1f!
#53000
0"
0u
0c!
#53500
1"
1u
1c!
0R"
1Q"
1g"
1|!
1d!
0x"
0w"
0v"
1u"
1p"
15"
0%"
0&"
1#"
0$"
1!"
1""
1}!
0~!
00"
1V!
01"
04"
0!"
0#"
1%"
1&"
1'"
1!
0'"
03"
0a!
0.
#54000
0"
0u
0c!
#54500
1"
1u
1c!
1R"
0d!
0e!
0f!
1g!
0h!
0i!
1j!
#55000
0"
0u
0c!
#55500
1"
1u
1c!
0R"
0Q"
0g"
0f"
1e"
0j!
1k!
1h!
1i!
0|!
1d!
0g!
0h!
1j!
0k!
0l!
0m!
0n!
1o!
1l!
1m!
0V!
1n!
0o!
1p!
0!
0p!
#56000
0"
0u
0c!
#56500
1"
1u
1c!
1R"
0d!
1e!
1f!
#57000
0"
0u
0c!
#57500
1"
1u
1c!
0R"
1Q"
1g"
1|!
1d!
1x"
0p"
05"
1X"
13"
0}!
1~!
10"
1V!
11"
14"
1!"
1!
1U!
03"
0;"
1&
0<"
1>"
1a!
1?"
1.
#58000
0"
0u
0c!
#58500
1"
1u
1c!
1R"
0d!
0e!
0f!
1g!
1h!
#59000
0"
0u
0c!
#59500
1"
1u
1c!
0R"
0Q"
0g"
1f"
0h!
0i!
0|!
1d!
0g!
1h!
1i!
0j!
1k!
0l!
0m!
1j!
0k!
0V!
1l!
1m!
0n!
1o!
0!
1p!
1n!
0o!
0p!
#60000
0"
0u
0c!
#60500
1"
1u
1c!
1R"
0d!
1e!
1f!
#61000
0"
0u
0c!
#61500
1"
1u
1c!
0R"
1Q"
1g"
1|!
1d!
0x"
1w"
15"
0o"
1n"
0!"
0""
16"
1}!
0~!
00"
1V!
01"
04"
1!"
1""
17"
1#"
1!
1:"
0#"
13"
1;"
1<"
0>"
1A"
1^!
0a!
0?"
0.
1+
#62000
0"
0u
0c!
#62500
1"
1u
1c!
1R"
0d!
0e!
0f!
1g!
0h!
0i!
0j!
1k!
0l!
0m!
0n!
1o!
1p!
#63000
0"
0u
0c!
#63500
1"
1u
1c!
0R"
0Q"
0g"
0f"
0e"
0d"
0c"
1b"
0p!
0q!
1n!
0o!
1l!
1m!
1j!
0k!
1h!
1i!
0|!
1d!
0g!
0h!
0j!
0l!
0n!
1p!
1q!
1r!
0r!
0V!
0!
#64000
0"
0u
0c!
#64500
1"
1u
1c!
1R"
0d!
1e!
1f!
#65000
0"
0u
0c!
#65500
1"
1u
1c!
0R"
1Q"
1g"
1|!
1d!
1x"
1p"
05"
0X"
18"
1o"
0W"
0n"
1V"
1m"
1?"
0<"
1I"
03"
0}!
1~!
1V!
0!"
0""
1!
1S!
0T!
1W!
0U!
1#"
0&
0%
1$
1/
#66000
0"
0u
0c!
#66500
1"
1u
1c!
1R"
0d!
0e!
0f!
1g!
1h!
#67000
0"
0u
0c!
#67500
1"
1u
1c!
0R"
0Q"
0g"
1f"
0h!
0i!
0|!
1d!
0g!
1h!
1i!
1j!
0j!
0V!
0!
#68000
0"
0u
0c!
#68500
1"
1u
1c!
1R"
0d!
1e!
1f!
#69000
0"
0u
0c!
#69500
1"
1u
1c!
0R"
1Q"
1g"
1|!
1d!
0x"
0w"
1v"
0p"
0o"
1n"
1Z"
0["
1J"
0L"
1M"
1N"
0O"
0#"
1$"
1!"
1""
06"
1}!
0~!
1V!
0!"
07"
1#"
0$"
0%"
0&"
1!
1'"
1%"
1&"
0:"
0I"
0L!
1M!
1N!
0O!
1Q!
0A"
0'"
1i
0g
1f
1e
0d
0^!
0+
#70000
0"
0u
0c!
#70500
1"
1u
1c!
1R"
0d!
0e!
0f!
1g!
0h!
0i!
1j!
#71000
0"
0u
0c!
#71500
1"
1u
1c!
0R"
0Q"
0g"
0f"
1e"
0j!
1k!
1h!
1i!
0|!
1d!
0g!
0h!
1j!
0k!
1l!
0l!
0V!
0!
#72000
0"
0u
0c!
#72500
1"
1u
1c!
1R"
0d!
1e!
1f!
#73000
0"
0u
0c!
#73500
1"
1u
1c!
0R"
1Q"
1g"
1|!
1d!
1x"
08"
0m"
0}!
1~!
1V!
1!"
1!
0W!
0/
#74000
0"
0u
0c!
#74500
1"
1u
1c!
1R"
0d!
0e!
0f!
1g!
1h!
#75000
0"
1k
0u
1v
1{!
0c!
0|!
0V!
0!
