simulation/qsim/RELOGIO_MK1.msim.vcd
$comment
	File created using the following command:
		vcd file RELOGIO_MK1.msim.vcd -direction
$end
$date
	Tue Oct  8 09:33:34 2019
$end
$version
	ModelSim Version 10.5b
$end
$timescale
	1ps
$end

$scope module relogio_vhd_vec_tst $end
$var wire 1 ! CLK_OUT $end
$var wire 1 " CLOCK_50 $end
$var wire 1 # DATA [3] $end
$var wire 1 $ DATA [2] $end
$var wire 1 % DATA [1] $end
$var wire 1 & DATA [0] $end
$var wire 1 ' ENDR [7] $end
$var wire 1 ( ENDR [6] $end
$var wire 1 ) ENDR [5] $end
$var wire 1 * ENDR [4] $end
$var wire 1 + ENDR [3] $end
$var wire 1 , ENDR [2] $end
$var wire 1 - ENDR [1] $end
$var wire 1 . ENDR [0] $end
$var wire 1 / HAB7SEG_OUT $end
$var wire 1 0 HAB_IO_OUT $end
$var wire 1 1 HABRAM_OUT $end
$var wire 1 2 HEX0 [6] $end
$var wire 1 3 HEX0 [5] $end
$var wire 1 4 HEX0 [4] $end
$var wire 1 5 HEX0 [3] $end
$var wire 1 6 HEX0 [2] $end
$var wire 1 7 HEX0 [1] $end
$var wire 1 8 HEX0 [0] $end
$var wire 1 9 HEX1 [6] $end
$var wire 1 : HEX1 [5] $end
$var wire 1 ; HEX1 [4] $end
$var wire 1 < HEX1 [3] $end
$var wire 1 = HEX1 [2] $end
$var wire 1 > HEX1 [1] $end
$var wire 1 ? HEX1 [0] $end
$var wire 1 @ HEX2 [6] $end
$var wire 1 A HEX2 [5] $end
$var wire 1 B HEX2 [4] $end
$var wire 1 C HEX2 [3] $end
$var wire 1 D HEX2 [2] $end
$var wire 1 E HEX2 [1] $end
$var wire 1 F HEX2 [0] $end
$var wire 1 G HEX3 [6] $end
$var wire 1 H HEX3 [5] $end
$var wire 1 I HEX3 [4] $end
$var wire 1 J HEX3 [3] $end
$var wire 1 K HEX3 [2] $end
$var wire 1 L HEX3 [1] $end
$var wire 1 M HEX3 [0] $end
$var wire 1 N HEX4 [6] $end
$var wire 1 O HEX4 [5] $end
$var wire 1 P HEX4 [4] $end
$var wire 1 Q HEX4 [3] $end
$var wire 1 R HEX4 [2] $end
$var wire 1 S HEX4 [1] $end
$var wire 1 T HEX4 [0] $end
$var wire 1 U HEX5 [6] $end
$var wire 1 V HEX5 [5] $end
$var wire 1 W HEX5 [4] $end
$var wire 1 X HEX5 [3] $end
$var wire 1 Y HEX5 [2] $end
$var wire 1 Z HEX5 [1] $end
$var wire 1 [ HEX5 [0] $end
$var wire 1 \ HEX6 [6] $end
$var wire 1 ] HEX6 [5] $end
$var wire 1 ^ HEX6 [4] $end
$var wire 1 _ HEX6 [3] $end
$var wire 1 ` HEX6 [2] $end
$var wire 1 a HEX6 [1] $end
$var wire 1 b HEX6 [0] $end
$var wire 1 c HEX7 [6] $end
$var wire 1 d HEX7 [5] $end
$var wire 1 e HEX7 [4] $end
$var wire 1 f HEX7 [3] $end
$var wire 1 g HEX7 [2] $end
$var wire 1 h HEX7 [1] $end
$var wire 1 i HEX7 [0] $end
$var wire 1 j SW0 $end

$scope module i1 $end
$var wire 1 k gnd $end
$var wire 1 l vcc $end
$var wire 1 m unknown $end
$var wire 1 n devoe $end
$var wire 1 o devclrn $end
$var wire 1 p devpor $end
$var wire 1 q ww_devoe $end
$var wire 1 r ww_devclrn $end
$var wire 1 s ww_devpor $end
$var wire 1 t ww_CLOCK_50 $end
$var wire 1 u ww_SW0 $end
$var wire 1 v ww_HEX0 [6] $end
$var wire 1 w ww_HEX0 [5] $end
$var wire 1 x ww_HEX0 [4] $end
$var wire 1 y ww_HEX0 [3] $end
$var wire 1 z ww_HEX0 [2] $end
$var wire 1 { ww_HEX0 [1] $end
$var wire 1 | ww_HEX0 [0] $end
$var wire 1 } ww_HEX1 [6] $end
$var wire 1 ~ ww_HEX1 [5] $end
$var wire 1 !! ww_HEX1 [4] $end
$var wire 1 "! ww_HEX1 [3] $end
$var wire 1 #! ww_HEX1 [2] $end
$var wire 1 $! ww_HEX1 [1] $end
$var wire 1 %! ww_HEX1 [0] $end
$var wire 1 &! ww_HEX2 [6] $end
$var wire 1 '! ww_HEX2 [5] $end
$var wire 1 (! ww_HEX2 [4] $end
$var wire 1 )! ww_HEX2 [3] $end
$var wire 1 *! ww_HEX2 [2] $end
$var wire 1 +! ww_HEX2 [1] $end
$var wire 1 ,! ww_HEX2 [0] $end
$var wire 1 -! ww_HEX3 [6] $end
$var wire 1 .! ww_HEX3 [5] $end
$var wire 1 /! ww_HEX3 [4] $end
$var wire 1 0! ww_HEX3 [3] $end
$var wire 1 1! ww_HEX3 [2] $end
$var wire 1 2! ww_HEX3 [1] $end
$var wire 1 3! ww_HEX3 [0] $end
$var wire 1 4! ww_HEX4 [6] $end
$var wire 1 5! ww_HEX4 [5] $end
$var wire 1 6! ww_HEX4 [4] $end
$var wire 1 7! ww_HEX4 [3] $end
$var wire 1 8! ww_HEX4 [2] $end
$var wire 1 9! ww_HEX4 [1] $end
$var wire 1 :! ww_HEX4 [0] $end
$var wire 1 ;! ww_HEX5 [6] $end
$var wire 1 <! ww_HEX5 [5] $end
$var wire 1 =! ww_HEX5 [4] $end
$var wire 1 >! ww_HEX5 [3] $end
$var wire 1 ?! ww_HEX5 [2] $end
$var wire 1 @! ww_HEX5 [1] $end
$var wire 1 A! ww_HEX5 [0] $end
$var wire 1 B! ww_HEX6 [6] $end
$var wire 1 C! ww_HEX6 [5] $end
$var wire 1 D! ww_HEX6 [4] $end
$var wire 1 E! ww_HEX6 [3] $end
$var wire 1 F! ww_HEX6 [2] $end
$var wire 1 G! ww_HEX6 [1] $end
$var wire 1 H! ww_HEX6 [0] $end
$var wire 1 I! ww_HEX7 [6] $end
$var wire 1 J! ww_HEX7 [5] $end
$var wire 1 K! ww_HEX7 [4] $end
$var wire 1 L! ww_HEX7 [3] $end
$var wire 1 M! ww_HEX7 [2] $end
$var wire 1 N! ww_HEX7 [1] $end
$var wire 1 O! ww_HEX7 [0] $end
$var wire 1 P! ww_DATA [3] $end
$var wire 1 Q! ww_DATA [2] $end
$var wire 1 R! ww_DATA [1] $end
$var wire 1 S! ww_DATA [0] $end
$var wire 1 T! ww_CLK_OUT $end
$var wire 1 U! ww_HAB7SEG_OUT $end
$var wire 1 V! ww_HABRAM_OUT $end
$var wire 1 W! ww_HAB_IO_OUT $end
$var wire 1 X! ww_ENDR [7] $end
$var wire 1 Y! ww_ENDR [6] $end
$var wire 1 Z! ww_ENDR [5] $end
$var wire 1 [! ww_ENDR [4] $end
$var wire 1 \! ww_ENDR [3] $end
$var wire 1 ]! ww_ENDR [2] $end
$var wire 1 ^! ww_ENDR [1] $end
$var wire 1 _! ww_ENDR [0] $end
$var wire 1 `! \HEX0[0]~output_o\ $end
$var wire 1 a! \HEX0[1]~output_o\ $end
$var wire 1 b! \HEX0[2]~output_o\ $end
$var wire 1 c! \HEX0[3]~output_o\ $end
$var wire 1 d! \HEX0[4]~output_o\ $end
$var wire 1 e! \HEX0[5]~output_o\ $end
$var wire 1 f! \HEX0[6]~output_o\ $end
$var wire 1 g! \HEX1[0]~output_o\ $end
$var wire 1 h! \HEX1[1]~output_o\ $end
$var wire 1 i! \HEX1[2]~output_o\ $end
$var wire 1 j! \HEX1[3]~output_o\ $end
$var wire 1 k! \HEX1[4]~output_o\ $end
$var wire 1 l! \HEX1[5]~output_o\ $end
$var wire 1 m! \HEX1[6]~output_o\ $end
$var wire 1 n! \HEX2[0]~output_o\ $end
$var wire 1 o! \HEX2[1]~output_o\ $end
$var wire 1 p! \HEX2[2]~output_o\ $end
$var wire 1 q! \HEX2[3]~output_o\ $end
$var wire 1 r! \HEX2[4]~output_o\ $end
$var wire 1 s! \HEX2[5]~output_o\ $end
$var wire 1 t! \HEX2[6]~output_o\ $end
$var wire 1 u! \HEX3[0]~output_o\ $end
$var wire 1 v! \HEX3[1]~output_o\ $end
$var wire 1 w! \HEX3[2]~output_o\ $end
$var wire 1 x! \HEX3[3]~output_o\ $end
$var wire 1 y! \HEX3[4]~output_o\ $end
$var wire 1 z! \HEX3[5]~output_o\ $end
$var wire 1 {! \HEX3[6]~output_o\ $end
$var wire 1 |! \HEX4[0]~output_o\ $end
$var wire 1 }! \HEX4[1]~output_o\ $end
$var wire 1 ~! \HEX4[2]~output_o\ $end
$var wire 1 !" \HEX4[3]~output_o\ $end
$var wire 1 "" \HEX4[4]~output_o\ $end
$var wire 1 #" \HEX4[5]~output_o\ $end
$var wire 1 $" \HEX4[6]~output_o\ $end
$var wire 1 %" \HEX5[0]~output_o\ $end
$var wire 1 &" \HEX5[1]~output_o\ $end
$var wire 1 '" \HEX5[2]~output_o\ $end
$var wire 1 (" \HEX5[3]~output_o\ $end
$var wire 1 )" \HEX5[4]~output_o\ $end
$var wire 1 *" \HEX5[5]~output_o\ $end
$var wire 1 +" \HEX5[6]~output_o\ $end
$var wire 1 ," \HEX6[0]~output_o\ $end
$var wire 1 -" \HEX6[1]~output_o\ $end
$var wire 1 ." \HEX6[2]~output_o\ $end
$var wire 1 /" \HEX6[3]~output_o\ $end
$var wire 1 0" \HEX6[4]~output_o\ $end
$var wire 1 1" \HEX6[5]~output_o\ $end
$var wire 1 2" \HEX6[6]~output_o\ $end
$var wire 1 3" \HEX7[0]~output_o\ $end
$var wire 1 4" \HEX7[1]~output_o\ $end
$var wire 1 5" \HEX7[2]~output_o\ $end
$var wire 1 6" \HEX7[3]~output_o\ $end
$var wire 1 7" \HEX7[4]~output_o\ $end
$var wire 1 8" \HEX7[5]~output_o\ $end
$var wire 1 9" \HEX7[6]~output_o\ $end
$var wire 1 :" \DATA[0]~output_o\ $end
$var wire 1 ;" \DATA[1]~output_o\ $end
$var wire 1 <" \DATA[2]~output_o\ $end
$var wire 1 =" \DATA[3]~output_o\ $end
$var wire 1 >" \CLK_OUT~output_o\ $end
$var wire 1 ?" \HAB7SEG_OUT~output_o\ $end
$var wire 1 @" \HABRAM_OUT~output_o\ $end
$var wire 1 A" \HAB_IO_OUT~output_o\ $end
$var wire 1 B" \ENDR[0]~output_o\ $end
$var wire 1 C" \ENDR[1]~output_o\ $end
$var wire 1 D" \ENDR[2]~output_o\ $end
$var wire 1 E" \ENDR[3]~output_o\ $end
$var wire 1 F" \ENDR[4]~output_o\ $end
$var wire 1 G" \ENDR[5]~output_o\ $end
$var wire 1 H" \ENDR[6]~output_o\ $end
$var wire 1 I" \ENDR[7]~output_o\ $end
$var wire 1 J" \CLOCK_50~input_o\ $end
$var wire 1 K" \BASE_DE_TEMPO_2|contador[0]~1_combout\ $end
$var wire 1 L" \BASE_DE_TEMPO_2|contador[1]~0_combout\ $end
$var wire 1 M" \BASE_DE_TEMPO_1|contador[1]~11_combout\ $end
$var wire 1 N" \BASE_DE_TEMPO_1|contador[1]~12\ $end
$var wire 1 O" \BASE_DE_TEMPO_1|contador[2]~13_combout\ $end
$var wire 1 P" \BASE_DE_TEMPO_1|contador[2]~14\ $end
$var wire 1 Q" \BASE_DE_TEMPO_1|contador[3]~15_combout\ $end
$var wire 1 R" \BASE_DE_TEMPO_1|contador[3]~16\ $end
$var wire 1 S" \BASE_DE_TEMPO_1|contador[4]~17_combout\ $end
$var wire 1 T" \BASE_DE_TEMPO_1|contador[4]~18\ $end
$var wire 1 U" \BASE_DE_TEMPO_1|contador[5]~19_combout\ $end
$var wire 1 V" \BASE_DE_TEMPO_1|contador[5]~20\ $end
$var wire 1 W" \BASE_DE_TEMPO_1|contador[6]~21_combout\ $end
$var wire 1 X" \BASE_DE_TEMPO_1|contador[6]~22\ $end
$var wire 1 Y" \BASE_DE_TEMPO_1|contador[7]~23_combout\ $end
$var wire 1 Z" \BASE_DE_TEMPO_1|contador[7]~24\ $end
$var wire 1 [" \BASE_DE_TEMPO_1|contador[8]~25_combout\ $end
$var wire 1 \" \BASE_DE_TEMPO_1|contador[8]~26\ $end
$var wire 1 ]" \BASE_DE_TEMPO_1|contador[9]~27_combout\ $end
$var wire 1 ^" \BASE_DE_TEMPO_1|contador[9]~28\ $end
$var wire 1 _" \BASE_DE_TEMPO_1|contador[10]~29_combout\ $end
$var wire 1 `" \BASE_DE_TEMPO_1|contador[10]~30\ $end
$var wire 1 a" \BASE_DE_TEMPO_1|contador[11]~31_combout\ $end
$var wire 1 b" \SW0~input_o\ $end
$var wire 1 c" \MUX_BASE_TEMPO|saida_MUX~combout\ $end
$var wire 1 d" \CPU|PC|DOUT[0]~8_combout\ $end
$var wire 1 e" \CPU|PC|DOUT[0]~9\ $end
$var wire 1 f" \CPU|PC|DOUT[1]~10_combout\ $end
$var wire 1 g" \CPU|PC|DOUT[1]~11\ $end
$var wire 1 h" \CPU|PC|DOUT[2]~12_combout\ $end
$var wire 1 i" \CPU|PC|DOUT[2]~13\ $end
$var wire 1 j" \CPU|PC|DOUT[3]~14_combout\ $end
$var wire 1 k" \CPU|PC|DOUT[3]~15\ $end
$var wire 1 l" \CPU|PC|DOUT[4]~16_combout\ $end
$var wire 1 m" \CPU|PC|DOUT[4]~17\ $end
$var wire 1 n" \CPU|PC|DOUT[5]~18_combout\ $end
$var wire 1 o" \CPU|PC|DOUT[5]~19\ $end
$var wire 1 p" \CPU|PC|DOUT[6]~20_combout\ $end
$var wire 1 q" \CPU|PC|DOUT[6]~21\ $end
$var wire 1 r" \CPU|PC|DOUT[7]~22_combout\ $end
$var wire 1 s" \CPU|ROM|memROM~3_combout\ $end
$var wire 1 t" \CPU|ROM|memROM~13_combout\ $end
$var wire 1 u" \CPU|ROM|memROM~2_combout\ $end
$var wire 1 v" \CPU|ULA|Add0~0_combout\ $end
$var wire 1 w" \CPU|ULA|SAIDA[0]~5_cout\ $end
$var wire 1 x" \CPU|ULA|SAIDA[0]~6_combout\ $end
$var wire 1 y" \CPU|ROM|memROM~4_combout\ $end
$var wire 1 z" \CPU|ROM|memROM~9_combout\ $end
$var wire 1 {" \CPU|ROM|memROM~10_combout\ $end
$var wire 1 |" \CPU|UC|MUXHAB~q\ $end
$var wire 1 }" \CPU|ROM|memROM~7_combout\ $end
$var wire 1 ~" \CPU|ROM|memROM~8_combout\ $end
$var wire 1 !# \CPU|ROM|memROM~11_combout\ $end
$var wire 1 "# \CPU|ROM|memROM~12_combout\ $end
$var wire 1 ## \CPU|UC|writeEnable~q\ $end
$var wire 1 $# \SEG7ALL|hab_DH~0_combout\ $end
$var wire 1 %# \CPU|ROM|memROM~5_combout\ $end
$var wire 1 &# \CPU|ROM|memROM~6_combout\ $end
$var wire 1 '# \SEG7ALL|hab_DH~1_combout\ $end
$var wire 1 (# \CPU|ULA|Add0~3_combout\ $end
$var wire 1 )# \CPU|ULA|Add0~2_combout\ $end
$var wire 1 *# \CPU|ULA|Add0~1_combout\ $end
$var wire 1 +# \CPU|ULA|SAIDA[0]~7\ $end
$var wire 1 ,# \CPU|ULA|SAIDA[1]~8_combout\ $end
$var wire 1 -# \CPU|ULA|SAIDA[1]~9\ $end
$var wire 1 .# \CPU|ULA|SAIDA[2]~10_combout\ $end
$var wire 1 /# \CPU|ULA|SAIDA[2]~11\ $end
$var wire 1 0# \CPU|ULA|SAIDA[3]~12_combout\ $end
$var wire 1 1# \SEG7ALL|SEG7_DH|rascSaida7seg[0]~0_combout\ $end
$var wire 1 2# \SEG7ALL|SEG7_DH|rascSaida7seg[1]~1_combout\ $end
$var wire 1 3# \SEG7ALL|SEG7_DH|rascSaida7seg[2]~2_combout\ $end
$var wire 1 4# \SEG7ALL|SEG7_DH|rascSaida7seg[3]~3_combout\ $end
$var wire 1 5# \SEG7ALL|SEG7_DH|rascSaida7seg[4]~4_combout\ $end
$var wire 1 6# \SEG7ALL|SEG7_DH|rascSaida7seg[5]~5_combout\ $end
$var wire 1 7# \SEG7ALL|SEG7_DH|rascSaida7seg[6]~6_combout\ $end
$var wire 1 8# \SEG7ALL|hab_UH~0_combout\ $end
$var wire 1 9# \SEG7ALL|SEG7_UH|rascSaida7seg[0]~0_combout\ $end
$var wire 1 :# \SEG7ALL|SEG7_UH|rascSaida7seg[1]~1_combout\ $end
$var wire 1 ;# \SEG7ALL|SEG7_UH|rascSaida7seg[2]~2_combout\ $end
$var wire 1 <# \SEG7ALL|SEG7_UH|rascSaida7seg[3]~3_combout\ $end
$var wire 1 =# \SEG7ALL|SEG7_UH|rascSaida7seg[4]~4_combout\ $end
$var wire 1 ># \SEG7ALL|SEG7_UH|rascSaida7seg[5]~5_combout\ $end
$var wire 1 ?# \SEG7ALL|SEG7_UH|rascSaida7seg[6]~6_combout\ $end
$var wire 1 @# \SEG7ALL|hab_DM~0_combout\ $end
$var wire 1 A# \SEG7ALL|SEG7_DM|rascSaida7seg[0]~0_combout\ $end
$var wire 1 B# \SEG7ALL|SEG7_DM|rascSaida7seg[1]~1_combout\ $end
$var wire 1 C# \SEG7ALL|SEG7_DM|rascSaida7seg[2]~2_combout\ $end
$var wire 1 D# \SEG7ALL|SEG7_DM|rascSaida7seg[3]~3_combout\ $end
$var wire 1 E# \SEG7ALL|SEG7_DM|rascSaida7seg[4]~4_combout\ $end
$var wire 1 F# \SEG7ALL|SEG7_DM|rascSaida7seg[5]~5_combout\ $end
$var wire 1 G# \SEG7ALL|SEG7_DM|rascSaida7seg[6]~6_combout\ $end
$var wire 1 H# \SEG7ALL|hab_UM~0_combout\ $end
$var wire 1 I# \SEG7ALL|SEG7_UM|rascSaida7seg[0]~0_combout\ $end
$var wire 1 J# \SEG7ALL|SEG7_UM|rascSaida7seg[1]~1_combout\ $end
$var wire 1 K# \SEG7ALL|SEG7_UM|rascSaida7seg[2]~2_combout\ $end
$var wire 1 L# \SEG7ALL|SEG7_UM|rascSaida7seg[3]~3_combout\ $end
$var wire 1 M# \SEG7ALL|SEG7_UM|rascSaida7seg[4]~4_combout\ $end
$var wire 1 N# \SEG7ALL|SEG7_UM|rascSaida7seg[5]~5_combout\ $end
$var wire 1 O# \SEG7ALL|SEG7_UM|rascSaida7seg[6]~6_combout\ $end
$var wire 1 P# \SEG7ALL|hab_DS~0_combout\ $end
$var wire 1 Q# \SEG7ALL|SEG7_DS|rascSaida7seg[0]~0_combout\ $end
$var wire 1 R# \SEG7ALL|SEG7_DS|rascSaida7seg[1]~1_combout\ $end
$var wire 1 S# \SEG7ALL|SEG7_DS|rascSaida7seg[2]~2_combout\ $end
$var wire 1 T# \SEG7ALL|SEG7_DS|rascSaida7seg[3]~3_combout\ $end
$var wire 1 U# \SEG7ALL|SEG7_DS|rascSaida7seg[4]~4_combout\ $end
$var wire 1 V# \SEG7ALL|SEG7_DS|rascSaida7seg[5]~5_combout\ $end
$var wire 1 W# \SEG7ALL|SEG7_DS|rascSaida7seg[6]~6_combout\ $end
$var wire 1 X# \SEG7ALL|hab_US~0_combout\ $end
$var wire 1 Y# \SEG7ALL|SEG7_US|rascSaida7seg[0]~0_combout\ $end
$var wire 1 Z# \SEG7ALL|SEG7_US|rascSaida7seg[1]~1_combout\ $end
$var wire 1 [# \SEG7ALL|SEG7_US|rascSaida7seg[2]~2_combout\ $end
$var wire 1 \# \SEG7ALL|SEG7_US|rascSaida7seg[3]~3_combout\ $end
$var wire 1 ]# \SEG7ALL|SEG7_US|rascSaida7seg[4]~4_combout\ $end
$var wire 1 ^# \SEG7ALL|SEG7_US|rascSaida7seg[5]~5_combout\ $end
$var wire 1 _# \SEG7ALL|SEG7_US|rascSaida7seg[6]~6_combout\ $end
$var wire 1 `# \CPU|UC|OPCODE\ [1] $end
$var wire 1 a# \CPU|UC|OPCODE\ [0] $end
$var wire 1 b# \BASE_DE_TEMPO_2|contador\ [1] $end
$var wire 1 c# \BASE_DE_TEMPO_2|contador\ [0] $end
$var wire 1 d# \CPU|PC|DOUT\ [7] $end
$var wire 1 e# \CPU|PC|DOUT\ [6] $end
$var wire 1 f# \CPU|PC|DOUT\ [5] $end
$var wire 1 g# \CPU|PC|DOUT\ [4] $end
$var wire 1 h# \CPU|PC|DOUT\ [3] $end
$var wire 1 i# \CPU|PC|DOUT\ [2] $end
$var wire 1 j# \CPU|PC|DOUT\ [1] $end
$var wire 1 k# \CPU|PC|DOUT\ [0] $end
$var wire 1 l# \CPU|ULA|SAIDA\ [3] $end
$var wire 1 m# \CPU|ULA|SAIDA\ [2] $end
$var wire 1 n# \CPU|ULA|SAIDA\ [1] $end
$var wire 1 o# \CPU|ULA|SAIDA\ [0] $end
$var wire 1 p# \BASE_DE_TEMPO_1|contador\ [11] $end
$var wire 1 q# \BASE_DE_TEMPO_1|contador\ [10] $end
$var wire 1 r# \BASE_DE_TEMPO_1|contador\ [9] $end
$var wire 1 s# \BASE_DE_TEMPO_1|contador\ [8] $end
$var wire 1 t# \BASE_DE_TEMPO_1|contador\ [7] $end
$var wire 1 u# \BASE_DE_TEMPO_1|contador\ [6] $end
$var wire 1 v# \BASE_DE_TEMPO_1|contador\ [5] $end
$var wire 1 w# \BASE_DE_TEMPO_1|contador\ [4] $end
$var wire 1 x# \BASE_DE_TEMPO_1|contador\ [3] $end
$var wire 1 y# \BASE_DE_TEMPO_1|contador\ [2] $end
$var wire 1 z# \BASE_DE_TEMPO_1|contador\ [1] $end
$var wire 1 {# \BASE_DE_TEMPO_1|contador\ [0] $end
$var wire 1 |# \SEG7ALL|REGSEG7_US|DOUT\ [3] $end
$var wire 1 }# \SEG7ALL|REGSEG7_US|DOUT\ [2] $end
$var wire 1 ~# \SEG7ALL|REGSEG7_US|DOUT\ [1] $end
$var wire 1 !$ \SEG7ALL|REGSEG7_US|DOUT\ [0] $end
$var wire 1 "$ \SEG7ALL|REGSEG7_DH|DOUT\ [3] $end
$var wire 1 #$ \SEG7ALL|REGSEG7_DH|DOUT\ [2] $end
$var wire 1 $$ \SEG7ALL|REGSEG7_DH|DOUT\ [1] $end
$var wire 1 %$ \SEG7ALL|REGSEG7_DH|DOUT\ [0] $end
$var wire 1 &$ \SEG7ALL|REGSEG7_UH|DOUT\ [3] $end
$var wire 1 '$ \SEG7ALL|REGSEG7_UH|DOUT\ [2] $end
$var wire 1 ($ \SEG7ALL|REGSEG7_UH|DOUT\ [1] $end
$var wire 1 )$ \SEG7ALL|REGSEG7_UH|DOUT\ [0] $end
$var wire 1 *$ \SEG7ALL|REGSEG7_DM|DOUT\ [3] $end
$var wire 1 +$ \SEG7ALL|REGSEG7_DM|DOUT\ [2] $end
$var wire 1 ,$ \SEG7ALL|REGSEG7_DM|DOUT\ [1] $end
$var wire 1 -$ \SEG7ALL|REGSEG7_DM|DOUT\ [0] $end
$var wire 1 .$ \SEG7ALL|REGSEG7_UM|DOUT\ [3] $end
$var wire 1 /$ \SEG7ALL|REGSEG7_UM|DOUT\ [2] $end
$var wire 1 0$ \SEG7ALL|REGSEG7_UM|DOUT\ [1] $end
$var wire 1 1$ \SEG7ALL|REGSEG7_UM|DOUT\ [0] $end
$var wire 1 2$ \SEG7ALL|REGSEG7_DS|DOUT\ [3] $end
$var wire 1 3$ \SEG7ALL|REGSEG7_DS|DOUT\ [2] $end
$var wire 1 4$ \SEG7ALL|REGSEG7_DS|DOUT\ [1] $end
$var wire 1 5$ \SEG7ALL|REGSEG7_DS|DOUT\ [0] $end
$var wire 1 6$ \CPU|ACU|DOUT\ [3] $end
$var wire 1 7$ \CPU|ACU|DOUT\ [2] $end
$var wire 1 8$ \CPU|ACU|DOUT\ [1] $end
$var wire 1 9$ \CPU|ACU|DOUT\ [0] $end
$var wire 1 :$ \SEG7ALL|SEG7_DS|ALT_INV_rascSaida7seg[6]~6_combout\ $end
$var wire 1 ;$ \SEG7ALL|SEG7_US|ALT_INV_rascSaida7seg[6]~6_combout\ $end
$var wire 1 <$ \SEG7ALL|SEG7_UM|ALT_INV_rascSaida7seg[6]~6_combout\ $end
$var wire 1 =$ \SEG7ALL|SEG7_DM|ALT_INV_rascSaida7seg[6]~6_combout\ $end
$var wire 1 >$ \SEG7ALL|SEG7_UH|ALT_INV_rascSaida7seg[6]~6_combout\ $end
$var wire 1 ?$ \SEG7ALL|SEG7_DH|ALT_INV_rascSaida7seg[6]~6_combout\ $end
$upscope $end
$upscope $end
$enddefinitions $end
#0
$dumpvars
0!
0"
0/
00
01
1j
0k
1l
xm
1n
1o
1p
1q
1r
1s
0t
1u
0T!
0U!
0V!
0W!
0`!
0a!
0b!
0c!
0d!
0e!
0f!
0g!
0h!
0i!
0j!
0k!
0l!
0m!
0n!
0o!
0p!
0q!
0r!
0s!
1t!
0u!
0v!
0w!
0x!
0y!
0z!
1{!
0|!
0}!
0~!
0!"
0""
0#"
1$"
0%"
0&"
0'"
0("
0)"
0*"
1+"
0,"
0-"
0."
0/"
00"
01"
12"
03"
04"
05"
06"
07"
08"
19"
0:"
0;"
0<"
0="
0>"
0?"
0@"
0A"
0B"
0C"
0D"
0E"
0F"
0G"
0H"
0I"
0J"
1K"
0L"
0M"
0N"
0O"
1P"
0Q"
0R"
0S"
1T"
0U"
0V"
0W"
1X"
0Y"
0Z"
0["
1\"
0]"
0^"
0_"
1`"
0a"
1b"
0c"
1d"
0e"
0f"
1g"
0h"
0i"
0j"
1k"
0l"
0m"
0n"
1o"
0p"
0q"
0r"
1s"
1t"
0u"
0v"
0w"
0x"
0y"
1z"
0{"
0|"
0}"
0~"
0!#
0"#
0##
0$#
0%#
0&#
0'#
0(#
0)#
0*#
1+#
0,#
0-#
0.#
1/#
00#
01#
02#
03#
04#
05#
06#
07#
08#
09#
0:#
0;#
0<#
0=#
0>#
0?#
0@#
0A#
0B#
0C#
0D#
0E#
0F#
0G#
0H#
0I#
0J#
0K#
0L#
0M#
0N#
0O#
0P#
0Q#
0R#
0S#
0T#
0U#
0V#
0W#
0X#
0Y#
0Z#
0[#
0\#
0]#
0^#
0_#
1:$
1;$
1<$
1=$
1>$
1?$
0v
0w
0x
0y
0z
0{
0|
0}
0~
0!!
0"!
0#!
0$!
0%!
1&!
0'!
0(!
0)!
0*!
0+!
0,!
1-!
0.!
0/!
00!
01!
02!
03!
14!
05!
06!
07!
08!
09!
0:!
1;!
0<!
0=!
0>!
0?!
0@!
0A!
1B!
0C!
0D!
0E!
0F!
0G!
0H!
1I!
0J!
0K!
0L!
0M!
0N!
0O!
0P!
0Q!
0R!
0S!
0X!
0Y!
0Z!
0[!
0\!
0]!
0^!
0_!
0`#
xa#
0b#
0c#
0d#
0e#
0f#
0g#
0h#
0i#
0j#
0k#
0l#
0m#
0n#
0o#
0p#
0q#
0r#
0s#
0t#
0u#
0v#
0w#
0x#
0y#
0z#
x{#
0|#
0}#
0~#
0!$
0"$
0#$
0$$
0%$
0&$
0'$
0($
0)$
0*$
0+$
0,$
0-$
0.$
0/$
00$
01$
02$
03$
04$
05$
06$
07$
08$
09$
0#
0$
0%
0&
0'
0(
0)
0*
0+
0,
0-
0.
02
03
04
05
06
07
08
09
0:
0;
0<
0=
0>
0?
1@
0A
0B
0C
0D
0E
0F
1G
0H
0I
0J
0K
0L
0M
1N
0O
0P
0Q
0R
0S
0T
1U
0V
0W
0X
0Y
0Z
0[
1\
0]
0^
0_
0`
0a
0b
1c
0d
0e
0f
0g
0h
0i
$end
#500
1"
1t
1J"
1c#
0K"
1L"
1M"
#1000
0"
0t
0J"
#1500
1"
1t
1J"
0c#
1b#
1z#
1K"
#2000
0"
0t
0J"
#2500
1"
1t
1J"
1c#
0K"
0L"
0M"
1N"
1O"
#3000
0"
0t
0J"
#3500
1"
1t
1J"
0c#
0b#
0z#
1y#
0O"
0P"
1K"
0N"
1O"
1P"
1Q"
0Q"
#4000
0"
0t
0J"
#4500
1"
1t
1J"
1c#
0K"
1L"
1M"
#5000
0"
0t
0J"
#5500
1"
1t
1J"
0c#
1b#
1z#
1K"
#6000
0"
0t
0J"
#6500
1"
1t
1J"
1c#
0K"
0L"
0M"
1N"
0O"
0P"
1Q"
#7000
0"
0t
0J"
#7500
1"
1t
1J"
0c#
0b#
0z#
0y#
1x#
0Q"
1R"
1O"
1P"
1K"
0N"
0O"
1Q"
0R"
1S"
0S"
#8000
0"
0t
0J"
#8500
1"
1t
1J"
1c#
0K"
1L"
1M"
#9000
0"
0t
0J"
#9500
1"
1t
1J"
0c#
1b#
1z#
1K"
#10000
0"
0t
0J"
#10500
1"
1t
1J"
1c#
0K"
0L"
0M"
1N"
1O"
#11000
0"
0t
0J"
#11500
1"
1t
1J"
0c#
0b#
0z#
1y#
0O"
0P"
1K"
0N"
1O"
1P"
0Q"
1R"
1S"
1Q"
0R"
0S"
#12000
0"
0t
0J"
#12500
1"
1t
1J"
1c#
0K"
1L"
1M"
#13000
0"
0t
0J"
#13500
1"
1t
1J"
0c#
1b#
1z#
1K"
#14000
0"
0t
0J"
#14500
1"
1t
1J"
1c#
0K"
0L"
0M"
1N"
0O"
0P"
0Q"
1R"
1S"
#15000
0"
0t
0J"
#15500
1"
1t
1J"
0c#
0b#
0z#
0y#
0x#
1w#
0S"
0T"
1Q"
0R"
1O"
1P"
1K"
0N"
0O"
0Q"
1S"
1T"
1U"
0U"
#16000
0"
0t
0J"
#16500
1"
1t
1J"
1c#
0K"
1L"
1M"
#17000
0"
0t
0J"
#17500
1"
1t
1J"
0c#
1b#
1z#
1K"
#18000
0"
0t
0J"
#18500
1"
1t
1J"
1c#
0K"
0L"
0M"
1N"
1O"
#19000
0"
0t
0J"
#19500
1"
1t
1J"
0c#
0b#
0z#
1y#
0O"
0P"
1K"
0N"
1O"
1P"
1Q"
0Q"
#20000
0"
0t
0J"
#20500
1"
1t
1J"
1c#
0K"
1L"
1M"
#21000
0"
0t
0J"
#21500
1"
1t
1J"
0c#
1b#
1z#
1K"
#22000
0"
0t
0J"
#22500
1"
1t
1J"
1c#
0K"
0L"
0M"
1N"
0O"
0P"
1Q"
#23000
0"
0t
0J"
